1	0.2746323809175271	3.532009819718163	0.6446058666103367	6.061595608848406	34742523450412874e-31	-0.23945814192265105	179.28054098064135	0.41266046321269345	227.37545645753949	377.01636255538705	1.8276901433023787	427.3585371295602	183.93205355887957	-1.8276901433023809	-248.1146190533524	315.9872884217965	-11915259517359065e-30	-800.2619025155028	-268.24699807188404
3.4422166816078947	1	12.31294668305775	2.249629531783006	19.00394425273706	60648991660965314e-31	-0.8569416688819733	645.8951857394508	1.3986363408919806	807.8185867753884	1300.0784204865856	6.238230198124782	1527.8460552095926	654.4728793320362	-6.238230198124789	-944.7263788476145	1076.752903731415	-16715915647953407e-30	-2779.3840825619454	-918.8899403777684
0.28312109097771265	0.07775839897894507	1	0.1824162489763842	1.7173448322829779	9948645673875594e-31	-0.0677493847019068	50.73548317753409	0.11722829094236231	64.36483561483588	106.78740157889551	0.5182541526730496	121.04765042928362	52.140362854603865	-0.5182541526730502	-70.22159596392753	89.54683671734014	-34199609170447984e-31	-226.72788472074976	-76.00113291101499
1.5518998371600163	0.4239863096168397	5.4710582944322255	1	9.3526905050515	56742119084356194e-31	-0.3776990740200095	276.54582411508375	0.6426013898767826	351.33061275655257	582.6375479960185	2.8268847501602585	658.4586892110523	282.096864726529	-2.8268847501602616	-381.1071578903223	491.79228677982445	-1963290333126343e-29	-1237.5187722431335	-413.8294969532663
0.16625975581800256	0.04590668018234876	0.5879934342238045	0.10727961691014458	1	5560366201140491e-31	-0.039960463846254006	29.909239637068406	0.06842569970346252	37.995514271030366	62.7286514773206	0.3033712954670809	71.27937570322302	30.38301354199816	-0.3033712954670812	-41.60945976799841	52.41627837395072	-18912362766024335e-31	-133.01191576957714	-44.51167394709376
245.60767751119428	67.23932332074695	867.7045671572989	158.9890757272155	1487.4600246452471	1	-58.86460278338202	44471.36354692369	100.40274114822739	55652.6910367479	92539.93351019279	448.5702711749447	104849.12367855788	45657.309585829425	-448.57027117494516	-60983.12162030133	77450.96428000255	-3.9999999999995075	-196664.4377304433	-66034.27673625175
-4.2114208769499895	-1.152041633178503	-14.884152275225397	-2.7264261328230117	-25.370650976178304	-14522261487704528e-30	1	-758.7468972202362	-1.7295013184905956	-957.7515272949929	-1587.9942539668734	-7.723528123324948	-1807.7773217383917	-775.854930832849	7.723528123324957	1042.3276128439284	-1323.2864174249362	49596983163528914e-30	3373.377365349965	1133.0052780813355
0.0055953385853751226	0.0015386675058419875	0.019731805011345607	0.0036164452561728766	0.03385053274485704	19564550489726712e-33	-0.0013370179953523206	1	0.0022848255166909967	1.2629933325139686	2.105866528820232	0.010200484583573958	2.380409798056889	1.0290433247448163	-0.010200484583573968	-1.3751190949588457	1.762359510335547	-6732549572124241e-32	-4.459982453321207	-1.5016876731634525
2.4286326401769913	0.6641768561757495	8.573394953386615	1.5687085467403021	14.692454387643044	8523064638314354e-30	-0.5840038227701813	435.1854230605575	1	551.748335274352	913.7552886774646	4.435545296604113	1036.3083019061078	444.0375442855859	-4.435545296604118	-599.5754829547545	766.1683320177833	-2930911278312246e-29	-1940.6126803242928	-650.2148663556314
0.00439174808687331	0.001206447989473542	0.015513539971611258	0.002832536988674726	0.026813145331639754	1550955472595079e-32	-0.0010482024725603563	0.7869824130282976	0.0018153450879136999	1	1.6581645074972666	0.008044794645819984	1.876788257169862	0.8031555362849868	-0.008044794645819992	-1.0882990602567073	1.3876641318553895	-53353183734769426e-33	-3.513882931228076	-1.1790094721877635
0.002639024364433277	0.0007277185843549574	0.009334887573349035	0.001713510974405063	0.01623795493781543	9529029414035346e-33	-0.000636098397931938	0.476300085455824	0.0011032631417684533	0.6019515265815736	1	0.004873513832383483	1.1364391182813083	0.49271450474841516	-0.004873513832383488	-0.6535662391082094	0.8308064699540195	-32902174451624475e-33	-2.1265729691700614	-0.7141091936682684
0.5489410534131975	0.15069415256934987	1.9421135092513566	0.3557277429709836	3.432543368376672	17453862438632852e-31	-0.13036118260615936	99.02688402697592	0.22208794438110313	126.34562124524243	207.01145559676797	1	235.4889121035135	100.37226250205985	-1.000000000000001	-137.70969098813725	171.94359778131226	-5867403796069253e-30	-439.0370105102887	-147.1780766171878
0.0023620580585968307	0.0006479932779191978	0.00833822067871319	0.0015220546283816081	0.01419005163638613	8173919685902666e-33	-0.0005649500976595101	0.426565060500464	0.0009650584864987356	0.5332088522569397	0.8925031495440863	0.004295773082700937	1	0.43769528881934017	-0.004295773082700942	-0.5832751112687652	0.7450196773339106	-28022020779208135e-33	-1.8871824115048639	-0.633065626974582
0.005393141758617999	0.0014919470116206254	0.019053270874730268	0.0035138935641607525	0.03288588007716373	18781007188814342e-33	-0.0012955471171006482	0.9797858135013096	0.002216228489534995	1.2192142887552504	2.032050830180234	0.009910672234964155	2.3109203866911194	1	-0.009910672234964165	-1.3302872031815427	1.713386299350495	-6452561536194025e-32	-4.33696382635334	-1.4567403826817562
-0.548941053413197	-0.1506941525693497	-1.9421135092513546	-0.35572774297098325	-3.4325433683766686	-17453862438632832e-31	0.13036118260615925	-99.02688402697584	-0.22208794438110294	-126.34562124524228	-207.0114555967678	-0.9999999999999988	-235.4889121035133	-100.37226250205975	1	137.7096909881371	-171.9435977813121	5867403796069247e-30	439.0370105102882	147.17807661718763
-0.00397760605993049	-0.0010968410292327996	-0.014062093577127606	-0.0025466675929924952	-0.024475785679207357	-1441836586045792e-32	0.0009408944959245752	-0.7087824281438484	-0.001664306277323042	-0.9177329932766801	-1.4941495000228537	-0.007308182931911193	-1.7031325076114432	-0.7200932219684354	0.007308182931911199	1	-1.253652874974595	50000481496915064e-33	3.1772982925540827	1.056467284547815
0.0031704457531468696	0.0008680865167934413	0.011182832095204934	0.0020405854329150937	0.01914595021479985	11015601331318925e-33	-0.0007577973220307063	0.5697148781170646	0.001302314302489184	0.7165087072759863	1.1893443313711536	0.00577735252624496	1.3504757704212786	0.5808829552668946	-0.005777352526244966	-0.778256065380812	1	-3781402680283751e-32	-2.530693976536147	-0.8493680872796022
-63.992467975587424	-17.520727055009598	-226.0599667843108	-41.41226527038558	-387.6332179599333	-0.235294117647101	15.334321194681078	-11575.185362701663	-26.190004886889696	-14503.022248846948	-24107.545143838717	-116.86925239700246	-27318.138589750433	-11881.567659690638	116.8692523970026	15881.461200950336	-20182.086727787035	1	51232.82051828807	17199.857087732715
-0.0012538779663551927	-0.00034461143988535534	-0.004416068053576879	-0.0008032306689005655	-0.0076006871828146905	-46001499560292985e-34	0.00029668940339304487	-0.22000226297490863	-0.0005155058619576757	-0.28535857021003286	-0.4706792840902266	-0.0022841364130316063	-0.5277451234462288	-0.22949049284968465	0.0022841364130316085	0.30885139897256225	-0.39826175389818136	16018075121060712e-33	1	0.33082827841952767
-0.003735572296041689	-0.0010230795971835187	-0.013202369122928782	-0.002402492635946217	-0.022684970646000564	-13499545837662536e-33	0.0008978889081256594	-0.6641616258143767	-0.0015528410276876565	-0.8577973019703172	-1.409297613089673	-0.006832973460048828	-1.6081295034135428	-0.6724491604131283	0.006832973460048835	0.9211633620634853	-1.1745120463932455	46572842406859394e-33	2.9928811801516546	1
