<?xml version="1.0" encoding="UTF-8"?>
<svg xmlns="http://www.w3.org/2000/svg"
     xmlns:xlink="http://www.w3.org/1999/xlink"
     xmlns:gadfly="http://www.gadflyjl.org/ns"
     version="1.2"
     width="209.55mm" height="101.6mm" viewBox="0 0 209.55 101.6"
     stroke="none"
     fill="#000000"
     stroke-width="0.3"
     font-size="3.88"
>
<g class="plotroot yscalable" id="img-7ee17fba-1">
  <g font-size="4.94" font-family="'PT Sans','Helvetica Neue','Helvetica',sans-serif" fill="#564A55" stroke="#000000" stroke-opacity="0.000" id="img-7ee17fba-2">
    <text x="115.93" y="89" text-anchor="middle" dy="0.6em">Eigenvectors</text>
  </g>
  <g class="guide xlabels" font-size="4.23" font-family="'PT Sans Caption','Helvetica Neue','Helvetica',sans-serif" fill="#6C606B" id="img-7ee17fba-3">
    <text x="32.52" y="80.99" text-anchor="middle" dy="0.6em">1</text>
    <text x="42.95" y="80.99" text-anchor="middle" dy="0.6em">2</text>
    <text x="53.37" y="80.99" text-anchor="middle" dy="0.6em">3</text>
    <text x="63.8" y="80.99" text-anchor="middle" dy="0.6em">4</text>
    <text x="74.22" y="80.99" text-anchor="middle" dy="0.6em">5</text>
    <text x="84.65" y="80.99" text-anchor="middle" dy="0.6em">6</text>
    <text x="95.08" y="80.99" text-anchor="middle" dy="0.6em">7</text>
    <text x="105.5" y="80.99" text-anchor="middle" dy="0.6em">8</text>
    <text x="115.93" y="80.99" text-anchor="middle" dy="0.6em">9</text>
    <text x="126.35" y="80.99" text-anchor="middle" dy="0.6em">10</text>
    <text x="136.78" y="80.99" text-anchor="middle" dy="0.6em">11</text>
    <text x="147.21" y="80.99" text-anchor="middle" dy="0.6em">12</text>
    <text x="157.63" y="80.99" text-anchor="middle" dy="0.6em">13</text>
    <text x="168.06" y="80.99" text-anchor="middle" dy="0.6em">14</text>
    <text x="178.48" y="80.99" text-anchor="middle" dy="0.6em">15</text>
    <text x="188.91" y="80.99" text-anchor="middle" dy="0.6em">16</text>
    <text x="199.34" y="80.99" text-anchor="middle" dy="0.6em">17</text>
  </g>
<g clip-path="url(#img-7ee17fba-4)">
  <g id="img-7ee17fba-5">
    <g pointer-events="visible" opacity="1" fill="#000000" fill-opacity="0.000" stroke="#000000" stroke-opacity="0.000" class="guide background" id="img-7ee17fba-6">
      <rect x="27.31" y="5" width="177.24" height="74.99"/>
    </g>
    <g class="guide ygridlines xfixed" stroke-dasharray="0.5,0.5" stroke-width="0.2" stroke="#D0D0E0" id="img-7ee17fba-7">
      <path fill="none" d="M27.31,77.99 L 204.55 77.99"/>
      <path fill="none" d="M27.31,60.24 L 204.55 60.24"/>
      <path fill="none" d="M27.31,42.5 L 204.55 42.5"/>
      <path fill="none" d="M27.31,24.75 L 204.55 24.75"/>
      <path fill="none" d="M27.31,7 L 204.55 7"/>
    </g>
    <g class="guide xgridlines yfixed" stroke-dasharray="0.5,0.5" stroke-width="0.2" stroke="#D0D0E0" id="img-7ee17fba-8">
      <path fill="none" d="M37.73,5 L 37.73 79.99"/>
      <path fill="none" d="M48.16,5 L 48.16 79.99"/>
      <path fill="none" d="M58.58,5 L 58.58 79.99"/>
      <path fill="none" d="M69.01,5 L 69.01 79.99"/>
      <path fill="none" d="M79.44,5 L 79.44 79.99"/>
      <path fill="none" d="M89.86,5 L 89.86 79.99"/>
      <path fill="none" d="M100.29,5 L 100.29 79.99"/>
      <path fill="none" d="M110.72,5 L 110.72 79.99"/>
      <path fill="none" d="M121.14,5 L 121.14 79.99"/>
      <path fill="none" d="M131.57,5 L 131.57 79.99"/>
      <path fill="none" d="M141.99,5 L 141.99 79.99"/>
      <path fill="none" d="M152.42,5 L 152.42 79.99"/>
      <path fill="none" d="M162.85,5 L 162.85 79.99"/>
      <path fill="none" d="M173.27,5 L 173.27 79.99"/>
      <path fill="none" d="M183.7,5 L 183.7 79.99"/>
      <path fill="none" d="M194.12,5 L 194.12 79.99"/>
    </g>
    <g class="plotpanel" id="img-7ee17fba-9">
      <g shape-rendering="crispEdges" stroke-width="0.3" id="img-7ee17fba-10">
        <g stroke="#000000" stroke-opacity="0.000" class="geometry" fill="#00BFFF" id="img-7ee17fba-11">
          <rect x="27.28" y="42.5" width="10.48" height="25.37"/>
          <rect x="37.71" y="42.5" width="10.48" height="24.34"/>
          <rect x="48.13" y="42.5" width="10.48" height="23.35"/>
          <rect x="58.56" y="42.5" width="10.48" height="17.58"/>
          <rect x="68.99" y="42.5" width="10.48" height="15.74"/>
          <rect x="79.41" y="42.5" width="10.48" height="15.35"/>
          <rect x="89.84" y="42.5" width="10.48" height="15.07"/>
          <rect x="100.26" y="42.5" width="10.48" height="12.1"/>
          <rect x="110.69" y="42.5" width="10.48" height="10.16"/>
          <rect x="121.12" y="42.5" width="10.48" height="9.81"/>
          <rect x="131.54" y="42.5" width="10.48" height="3.6"/>
          <rect x="141.97" y="39.9" width="10.48" height="2.6"/>
          <rect x="152.39" y="37.24" width="10.48" height="5.26"/>
          <rect x="162.82" y="36.28" width="10.48" height="6.22"/>
          <rect x="173.25" y="28.18" width="10.48" height="14.31"/>
          <rect x="183.67" y="22.57" width="10.48" height="19.92"/>
          <rect x="194.1" y="11.74" width="10.48" height="30.76"/>
        </g>
      </g>
    </g>
  </g>
</g>
  <g class="guide ylabels" font-size="4.23" font-family="'PT Sans Caption','Helvetica Neue','Helvetica',sans-serif" fill="#6C606B" id="img-7ee17fba-12">
    <text x="26.31" y="77.99" text-anchor="end" dy="0.35em">10<tspan style="dominant-baseline:inherit" dy="-0.6em" font-size="83%">-10</tspan><tspan dy="0.498000em"></tspan></text>
    <text x="26.31" y="60.24" text-anchor="end" dy="0.35em">10<tspan style="dominant-baseline:inherit" dy="-0.6em" font-size="83%">-5</tspan><tspan dy="0.498000em"></tspan></text>
    <text x="26.31" y="42.5" text-anchor="end" dy="0.35em">10<tspan style="dominant-baseline:inherit" dy="-0.6em" font-size="83%">0</tspan><tspan dy="0.498000em"></tspan></text>
    <text x="26.31" y="24.75" text-anchor="end" dy="0.35em">10<tspan style="dominant-baseline:inherit" dy="-0.6em" font-size="83%">5</tspan><tspan dy="0.498000em"></tspan></text>
    <text x="26.31" y="7" text-anchor="end" dy="0.35em">10<tspan style="dominant-baseline:inherit" dy="-0.6em" font-size="83%">10</tspan><tspan dy="0.498000em"></tspan></text>
  </g>
  <g font-size="4.94" font-family="'PT Sans','Helvetica Neue','Helvetica',sans-serif" fill="#564A55" stroke="#000000" stroke-opacity="0.000" id="img-7ee17fba-13">
    <text x="9.3" y="40.5" text-anchor="middle" dy="0.35em" transform="rotate(-90, 9.3, 42.5)">Eigenvalues</text>
  </g>
</g>
<defs>
  <clipPath id="img-7ee17fba-4">
  <path d="M27.31,5 L 204.55 5 204.55 79.99 27.31 79.99" />
</clipPath>
</defs>
</svg>
