<?xml version="1.0" encoding="UTF-8"?>
<svg xmlns="http://www.w3.org/2000/svg"
     xmlns:xlink="http://www.w3.org/1999/xlink"
     xmlns:gadfly="http://www.gadflyjl.org/ns"
     version="1.2"
     width="209.55mm" height="209.55mm" viewBox="0 0 209.55 209.55"
     stroke="none"
     fill="#000000"
     stroke-width="0.3"
     font-size="3.88"
>
<g class="plotroot" id="img-c71dd1ed-1">
  <g font-size="4.94" font-family="'PT Sans','Helvetica Neue','Helvetica',sans-serif" fill="#564A55" stroke="#000000" stroke-opacity="0.000" id="img-c71dd1ed-2">
    <text x="113.54" y="183.41" text-anchor="middle" dy="0.6em">Eigenvectors</text>
  </g>
  <g class="guide xlabels" font-size="4.23" font-family="'PT Sans Caption','Helvetica Neue','Helvetica',sans-serif" fill="#6C606B" id="img-c71dd1ed-3">
    <text x="40.2" y="175.4" text-anchor="middle" dy="0.6em">1</text>
    <text x="49.37" y="175.4" text-anchor="middle" dy="0.6em">2</text>
    <text x="58.54" y="175.4" text-anchor="middle" dy="0.6em">3</text>
    <text x="67.7" y="175.4" text-anchor="middle" dy="0.6em">4</text>
    <text x="76.87" y="175.4" text-anchor="middle" dy="0.6em">5</text>
    <text x="86.04" y="175.4" text-anchor="middle" dy="0.6em">6</text>
    <text x="95.21" y="175.4" text-anchor="middle" dy="0.6em">7</text>
    <text x="104.38" y="175.4" text-anchor="middle" dy="0.6em">8</text>
    <text x="113.54" y="175.4" text-anchor="middle" dy="0.6em">9</text>
    <text x="122.71" y="175.4" text-anchor="middle" dy="0.6em">10</text>
    <text x="131.88" y="175.4" text-anchor="middle" dy="0.6em">11</text>
    <text x="141.05" y="175.4" text-anchor="middle" dy="0.6em">12</text>
    <text x="150.21" y="175.4" text-anchor="middle" dy="0.6em">13</text>
    <text x="159.38" y="175.4" text-anchor="middle" dy="0.6em">14</text>
    <text x="168.55" y="175.4" text-anchor="middle" dy="0.6em">15</text>
    <text x="177.72" y="175.4" text-anchor="middle" dy="0.6em">16</text>
    <text x="186.89" y="175.4" text-anchor="middle" dy="0.6em">17</text>
  </g>
  <g class="guide colorkey" id="img-c71dd1ed-4">
    <g font-size="4.23" font-family="'PT Sans','Helvetica Neue','Helvetica',sans-serif" fill="#4C404B" id="img-c71dd1ed-5">
      <text x="196.44" y="125.13" dy="0.35em">-1.0</text>
      <text x="196.44" y="86.32" dy="0.35em">1.0</text>
      <text x="196.44" y="115.43" dy="0.35em">-0.5</text>
      <text x="196.44" y="96.02" dy="0.35em">0.5</text>
      <text x="196.44" y="105.72" dy="0.35em">0.0</text>
    </g>
    <g shape-rendering="crispEdges" stroke="#000000" stroke-opacity="0.000" id="img-c71dd1ed-6">
      <rect x="193.47" y="124.16" width="1.97" height="0.97" fill="#008000"/>
      <rect x="193.47" y="123.19" width="1.97" height="0.97" fill="#208600"/>
      <rect x="193.47" y="122.22" width="1.97" height="0.97" fill="#328D00"/>
      <rect x="193.47" y="121.25" width="1.97" height="0.97" fill="#409300"/>
      <rect x="193.47" y="120.28" width="1.97" height="0.97" fill="#4D9A00"/>
      <rect x="193.47" y="119.31" width="1.97" height="0.97" fill="#5AA000"/>
      <rect x="193.47" y="118.34" width="1.97" height="0.97" fill="#66A700"/>
      <rect x="193.47" y="117.37" width="1.97" height="0.97" fill="#72AD00"/>
      <rect x="193.47" y="116.4" width="1.97" height="0.97" fill="#7DB300"/>
      <rect x="193.47" y="115.43" width="1.97" height="0.97" fill="#88BA00"/>
      <rect x="193.47" y="114.46" width="1.97" height="0.97" fill="#94C000"/>
      <rect x="193.47" y="113.49" width="1.97" height="0.97" fill="#9FC700"/>
      <rect x="193.47" y="112.52" width="1.97" height="0.97" fill="#AACE00"/>
      <rect x="193.47" y="111.55" width="1.97" height="0.97" fill="#B5D400"/>
      <rect x="193.47" y="110.58" width="1.97" height="0.97" fill="#C1DB00"/>
      <rect x="193.47" y="109.61" width="1.97" height="0.97" fill="#CCE100"/>
      <rect x="193.47" y="108.64" width="1.97" height="0.97" fill="#D7E800"/>
      <rect x="193.47" y="107.67" width="1.97" height="0.97" fill="#E2EE00"/>
      <rect x="193.47" y="106.7" width="1.97" height="0.97" fill="#EEF500"/>
      <rect x="193.47" y="105.72" width="1.97" height="0.97" fill="#F9FC00"/>
      <rect x="193.47" y="104.75" width="1.97" height="0.97" fill="#FFFA00"/>
      <rect x="193.47" y="103.78" width="1.97" height="0.97" fill="#FFF100"/>
      <rect x="193.47" y="102.81" width="1.97" height="0.97" fill="#FFE800"/>
      <rect x="193.47" y="101.84" width="1.97" height="0.97" fill="#FFDE00"/>
      <rect x="193.47" y="100.87" width="1.97" height="0.97" fill="#FFD500"/>
      <rect x="193.47" y="99.9" width="1.97" height="0.97" fill="#FFCB00"/>
      <rect x="193.47" y="98.93" width="1.97" height="0.97" fill="#FFC200"/>
      <rect x="193.47" y="97.96" width="1.97" height="0.97" fill="#FFB800"/>
      <rect x="193.47" y="96.99" width="1.97" height="0.97" fill="#FFAE00"/>
      <rect x="193.47" y="96.02" width="1.97" height="0.97" fill="#FFA400"/>
      <rect x="193.47" y="95.05" width="1.97" height="0.97" fill="#FF9A00"/>
      <rect x="193.47" y="94.08" width="1.97" height="0.97" fill="#FF8F00"/>
      <rect x="193.47" y="93.11" width="1.97" height="0.97" fill="#FF8400"/>
      <rect x="193.47" y="92.14" width="1.97" height="0.97" fill="#FF7900"/>
      <rect x="193.47" y="91.17" width="1.97" height="0.97" fill="#FF6D00"/>
      <rect x="193.47" y="90.2" width="1.97" height="0.97" fill="#FF6000"/>
      <rect x="193.47" y="89.23" width="1.97" height="0.97" fill="#FF5200"/>
      <rect x="193.47" y="88.26" width="1.97" height="0.97" fill="#FF4200"/>
      <rect x="193.47" y="87.29" width="1.97" height="0.97" fill="#FF2D00"/>
      <rect x="193.47" y="86.32" width="1.97" height="0.97" fill="#FF0000"/>
      <g stroke="#FFFFFF" stroke-width="0.2" id="img-c71dd1ed-7">
        <path fill="none" d="M193.47,125.13 L 195.44 125.13"/>
        <path fill="none" d="M193.47,86.32 L 195.44 86.32"/>
        <path fill="none" d="M193.47,115.43 L 195.44 115.43"/>
        <path fill="none" d="M193.47,96.02 L 195.44 96.02"/>
        <path fill="none" d="M193.47,105.72 L 195.44 105.72"/>
      </g>
    </g>
    <g fill="#362A35" font-size="5.64" font-family="'PT Sans','Helvetica Neue','Helvetica',sans-serif" stroke="#000000" stroke-opacity="0.000" id="img-c71dd1ed-8">
      <text x="193.47" y="82.32">value</text>
    </g>
  </g>
<g clip-path="url(#img-c71dd1ed-9)">
  <g id="img-c71dd1ed-10">
    <g pointer-events="visible" opacity="1" fill="#000000" fill-opacity="0.000" stroke="#000000" stroke-opacity="0.000" class="guide background" id="img-c71dd1ed-11">
      <rect x="35.62" y="18.55" width="155.85" height="155.85"/>
    </g>
    <g class="guide ygridlines xfixed" stroke-dasharray="0.5,0.5" stroke-width="0.2" stroke="#D0D0E0" id="img-c71dd1ed-12">
      <path fill="none" d="M35.62,27.71 L 191.47 27.71"/>
      <path fill="none" d="M35.62,36.88 L 191.47 36.88"/>
      <path fill="none" d="M35.62,46.05 L 191.47 46.05"/>
      <path fill="none" d="M35.62,55.22 L 191.47 55.22"/>
      <path fill="none" d="M35.62,64.38 L 191.47 64.38"/>
      <path fill="none" d="M35.62,73.55 L 191.47 73.55"/>
      <path fill="none" d="M35.62,82.72 L 191.47 82.72"/>
      <path fill="none" d="M35.62,91.89 L 191.47 91.89"/>
      <path fill="none" d="M35.62,101.06 L 191.47 101.06"/>
      <path fill="none" d="M35.62,110.22 L 191.47 110.22"/>
      <path fill="none" d="M35.62,119.39 L 191.47 119.39"/>
      <path fill="none" d="M35.62,128.56 L 191.47 128.56"/>
      <path fill="none" d="M35.62,137.73 L 191.47 137.73"/>
      <path fill="none" d="M35.62,146.89 L 191.47 146.89"/>
      <path fill="none" d="M35.62,156.06 L 191.47 156.06"/>
      <path fill="none" d="M35.62,165.23 L 191.47 165.23"/>
    </g>
    <g class="guide xgridlines yfixed" stroke-dasharray="0.5,0.5" stroke-width="0.2" stroke="#D0D0E0" id="img-c71dd1ed-13">
      <path fill="none" d="M44.78,18.55 L 44.78 174.4"/>
      <path fill="none" d="M53.95,18.55 L 53.95 174.4"/>
      <path fill="none" d="M63.12,18.55 L 63.12 174.4"/>
      <path fill="none" d="M72.29,18.55 L 72.29 174.4"/>
      <path fill="none" d="M81.46,18.55 L 81.46 174.4"/>
      <path fill="none" d="M90.62,18.55 L 90.62 174.4"/>
      <path fill="none" d="M99.79,18.55 L 99.79 174.4"/>
      <path fill="none" d="M108.96,18.55 L 108.96 174.4"/>
      <path fill="none" d="M118.13,18.55 L 118.13 174.4"/>
      <path fill="none" d="M127.3,18.55 L 127.3 174.4"/>
      <path fill="none" d="M136.46,18.55 L 136.46 174.4"/>
      <path fill="none" d="M145.63,18.55 L 145.63 174.4"/>
      <path fill="none" d="M154.8,18.55 L 154.8 174.4"/>
      <path fill="none" d="M163.97,18.55 L 163.97 174.4"/>
      <path fill="none" d="M173.13,18.55 L 173.13 174.4"/>
      <path fill="none" d="M182.3,18.55 L 182.3 174.4"/>
    </g>
    <g class="plotpanel" id="img-c71dd1ed-14">
      <g shape-rendering="crispEdges" class="geometry" stroke="#000000" stroke-opacity="0.000" id="img-c71dd1ed-15">
        <rect x="35.62" y="18.55" width="9.22" height="9.22" fill="#FFC500"/>
        <rect x="35.62" y="27.71" width="9.22" height="9.22" fill="#FFFA00"/>
        <rect x="35.62" y="36.88" width="9.22" height="9.22" fill="#FFFC00"/>
        <rect x="35.62" y="46.05" width="9.22" height="9.22" fill="#FFEC00"/>
        <rect x="35.62" y="55.22" width="9.22" height="9.22" fill="#8EBD00"/>
        <rect x="35.62" y="64.38" width="9.22" height="9.22" fill="#F3F800"/>
        <rect x="35.62" y="73.55" width="9.22" height="9.22" fill="#FFFD00"/>
        <rect x="35.62" y="82.72" width="9.22" height="9.22" fill="#D8E800"/>
        <rect x="35.62" y="91.89" width="9.22" height="9.22" fill="#F2F700"/>
        <rect x="35.62" y="101.06" width="9.22" height="9.22" fill="#FFF500"/>
        <rect x="35.62" y="110.22" width="9.22" height="9.22" fill="#FFFF00"/>
        <rect x="35.62" y="119.39" width="9.22" height="9.22" fill="#79B100"/>
        <rect x="35.62" y="128.56" width="9.22" height="9.22" fill="#FFFD00"/>
        <rect x="35.62" y="137.73" width="9.22" height="9.22" fill="#9CC600"/>
        <rect x="35.62" y="146.89" width="9.22" height="9.22" fill="#F2F800"/>
        <rect x="35.62" y="156.06" width="9.22" height="9.22" fill="#FFEF00"/>
        <rect x="35.62" y="165.23" width="9.22" height="9.22" fill="#FFF800"/>
        <rect x="44.78" y="18.55" width="9.22" height="9.22" fill="#228700"/>
        <rect x="44.78" y="27.71" width="9.22" height="9.22" fill="#FFFE00"/>
        <rect x="44.78" y="36.88" width="9.22" height="9.22" fill="#FFFE00"/>
        <rect x="44.78" y="46.05" width="9.22" height="9.22" fill="#FFEF00"/>
        <rect x="44.78" y="55.22" width="9.22" height="9.22" fill="#E1EE00"/>
        <rect x="44.78" y="64.38" width="9.22" height="9.22" fill="#FFFF00"/>
        <rect x="44.78" y="73.55" width="9.22" height="9.22" fill="#FFFE00"/>
        <rect x="44.78" y="82.72" width="9.22" height="9.22" fill="#F9FB00"/>
        <rect x="44.78" y="91.89" width="9.22" height="9.22" fill="#FCFD00"/>
        <rect x="44.78" y="101.06" width="9.22" height="9.22" fill="#FFFB00"/>
        <rect x="44.78" y="110.22" width="9.22" height="9.22" fill="#FFFF00"/>
        <rect x="44.78" y="119.39" width="9.22" height="9.22" fill="#C7DE00"/>
        <rect x="44.78" y="128.56" width="9.22" height="9.22" fill="#FFFE00"/>
        <rect x="44.78" y="137.73" width="9.22" height="9.22" fill="#E6F000"/>
        <rect x="44.78" y="146.89" width="9.22" height="9.22" fill="#FCFD00"/>
        <rect x="44.78" y="156.06" width="9.22" height="9.22" fill="#FFEF00"/>
        <rect x="44.78" y="165.23" width="9.22" height="9.22" fill="#FFFF00"/>
        <rect x="53.95" y="18.55" width="9.22" height="9.22" fill="#E7F100"/>
        <rect x="53.95" y="27.71" width="9.22" height="9.22" fill="#FFFC00"/>
        <rect x="53.95" y="36.88" width="9.22" height="9.22" fill="#FFFD00"/>
        <rect x="53.95" y="46.05" width="9.22" height="9.22" fill="#96C200"/>
        <rect x="53.95" y="55.22" width="9.22" height="9.22" fill="#B1D200"/>
        <rect x="53.95" y="64.38" width="9.22" height="9.22" fill="#F8FB00"/>
        <rect x="53.95" y="73.55" width="9.22" height="9.22" fill="#FFFE00"/>
        <rect x="53.95" y="82.72" width="9.22" height="9.22" fill="#C0DA00"/>
        <rect x="53.95" y="91.89" width="9.22" height="9.22" fill="#F5F900"/>
        <rect x="53.95" y="101.06" width="9.22" height="9.22" fill="#F9FC00"/>
        <rect x="53.95" y="110.22" width="9.22" height="9.22" fill="#FFFF00"/>
        <rect x="53.95" y="119.39" width="9.22" height="9.22" fill="#FFB300"/>
        <rect x="53.95" y="128.56" width="9.22" height="9.22" fill="#FFFE00"/>
        <rect x="53.95" y="137.73" width="9.22" height="9.22" fill="#BBD700"/>
        <rect x="53.95" y="146.89" width="9.22" height="9.22" fill="#F6FA00"/>
        <rect x="53.95" y="156.06" width="9.22" height="9.22" fill="#8CBC00"/>
        <rect x="53.95" y="165.23" width="9.22" height="9.22" fill="#FFE700"/>
        <rect x="63.12" y="18.55" width="9.22" height="9.22" fill="#FFFF00"/>
        <rect x="63.12" y="27.71" width="9.22" height="9.22" fill="#FCFD00"/>
        <rect x="63.12" y="36.88" width="9.22" height="9.22" fill="#FCFE00"/>
        <rect x="63.12" y="46.05" width="9.22" height="9.22" fill="#EAF300"/>
        <rect x="63.12" y="55.22" width="9.22" height="9.22" fill="#FFE500"/>
        <rect x="63.12" y="64.38" width="9.22" height="9.22" fill="#FDFE00"/>
        <rect x="63.12" y="73.55" width="9.22" height="9.22" fill="#D9E900"/>
        <rect x="63.12" y="82.72" width="9.22" height="9.22" fill="#8CBC00"/>
        <rect x="63.12" y="91.89" width="9.22" height="9.22" fill="#B6D400"/>
        <rect x="63.12" y="101.06" width="9.22" height="9.22" fill="#A6CB00"/>
        <rect x="63.12" y="110.22" width="9.22" height="9.22" fill="#FEFF00"/>
        <rect x="63.12" y="119.39" width="9.22" height="9.22" fill="#CBE100"/>
        <rect x="63.12" y="128.56" width="9.22" height="9.22" fill="#D9E900"/>
        <rect x="63.12" y="137.73" width="9.22" height="9.22" fill="#FFCA00"/>
        <rect x="63.12" y="146.89" width="9.22" height="9.22" fill="#DAE900"/>
        <rect x="63.12" y="156.06" width="9.22" height="9.22" fill="#E2EE00"/>
        <rect x="63.12" y="165.23" width="9.22" height="9.22" fill="#A1C800"/>
        <rect x="72.29" y="18.55" width="9.22" height="9.22" fill="#FFFF00"/>
        <rect x="72.29" y="27.71" width="9.22" height="9.22" fill="#FFFC00"/>
        <rect x="72.29" y="36.88" width="9.22" height="9.22" fill="#E3EF00"/>
        <rect x="72.29" y="46.05" width="9.22" height="9.22" fill="#F5F900"/>
        <rect x="72.29" y="55.22" width="9.22" height="9.22" fill="#92BF00"/>
        <rect x="72.29" y="64.38" width="9.22" height="9.22" fill="#D1E400"/>
        <rect x="72.29" y="73.55" width="9.22" height="9.22" fill="#FFF300"/>
        <rect x="72.29" y="82.72" width="9.22" height="9.22" fill="#F7FA00"/>
        <rect x="72.29" y="91.89" width="9.22" height="9.22" fill="#FFF400"/>
        <rect x="72.29" y="101.06" width="9.22" height="9.22" fill="#FFE000"/>
        <rect x="72.29" y="110.22" width="9.22" height="9.22" fill="#FFFF00"/>
        <rect x="72.29" y="119.39" width="9.22" height="9.22" fill="#E7F100"/>
        <rect x="72.29" y="128.56" width="9.22" height="9.22" fill="#FFF300"/>
        <rect x="72.29" y="137.73" width="9.22" height="9.22" fill="#FF6900"/>
        <rect x="72.29" y="146.89" width="9.22" height="9.22" fill="#FFFD00"/>
        <rect x="72.29" y="156.06" width="9.22" height="9.22" fill="#ECF400"/>
        <rect x="72.29" y="165.23" width="9.22" height="9.22" fill="#FFD500"/>
        <rect x="81.46" y="18.55" width="9.22" height="9.22" fill="#FFFF00"/>
        <rect x="81.46" y="27.71" width="9.22" height="9.22" fill="#FFFF00"/>
        <rect x="81.46" y="36.88" width="9.22" height="9.22" fill="#0A8100"/>
        <rect x="81.46" y="46.05" width="9.22" height="9.22" fill="#FFFF00"/>
        <rect x="81.46" y="55.22" width="9.22" height="9.22" fill="#FFF900"/>
        <rect x="81.46" y="64.38" width="9.22" height="9.22" fill="#FFEB00"/>
        <rect x="81.46" y="73.55" width="9.22" height="9.22" fill="#FEFE00"/>
        <rect x="81.46" y="82.72" width="9.22" height="9.22" fill="#FFFF00"/>
        <rect x="81.46" y="91.89" width="9.22" height="9.22" fill="#FEFE00"/>
        <rect x="81.46" y="101.06" width="9.22" height="9.22" fill="#FCFD00"/>
        <rect x="81.46" y="110.22" width="9.22" height="9.22" fill="#FFFF00"/>
        <rect x="81.46" y="119.39" width="9.22" height="9.22" fill="#FFFE00"/>
        <rect x="81.46" y="128.56" width="9.22" height="9.22" fill="#FEFE00"/>
        <rect x="81.46" y="137.73" width="9.22" height="9.22" fill="#E9F200"/>
        <rect x="81.46" y="146.89" width="9.22" height="9.22" fill="#FFFF00"/>
        <rect x="81.46" y="156.06" width="9.22" height="9.22" fill="#FFFE00"/>
        <rect x="81.46" y="165.23" width="9.22" height="9.22" fill="#FBFD00"/>
        <rect x="90.62" y="18.55" width="9.22" height="9.22" fill="#FBFD00"/>
        <rect x="90.62" y="27.71" width="9.22" height="9.22" fill="#FEFE00"/>
        <rect x="90.62" y="36.88" width="9.22" height="9.22" fill="#EBF300"/>
        <rect x="90.62" y="46.05" width="9.22" height="9.22" fill="#FFFB00"/>
        <rect x="90.62" y="55.22" width="9.22" height="9.22" fill="#FFE400"/>
        <rect x="90.62" y="64.38" width="9.22" height="9.22" fill="#168400"/>
        <rect x="90.62" y="73.55" width="9.22" height="9.22" fill="#FCFD00"/>
        <rect x="90.62" y="82.72" width="9.22" height="9.22" fill="#FFF900"/>
        <rect x="90.62" y="91.89" width="9.22" height="9.22" fill="#FEFE00"/>
        <rect x="90.62" y="101.06" width="9.22" height="9.22" fill="#F7FB00"/>
        <rect x="90.62" y="110.22" width="9.22" height="9.22" fill="#FFFF00"/>
        <rect x="90.62" y="119.39" width="9.22" height="9.22" fill="#FFF700"/>
        <rect x="90.62" y="128.56" width="9.22" height="9.22" fill="#FCFD00"/>
        <rect x="90.62" y="137.73" width="9.22" height="9.22" fill="#E0ED00"/>
        <rect x="90.62" y="146.89" width="9.22" height="9.22" fill="#FFFE00"/>
        <rect x="90.62" y="156.06" width="9.22" height="9.22" fill="#FFFA00"/>
        <rect x="90.62" y="165.23" width="9.22" height="9.22" fill="#F4F800"/>
        <rect x="99.79" y="18.55" width="9.22" height="9.22" fill="#FFFF00"/>
        <rect x="99.79" y="27.71" width="9.22" height="9.22" fill="#FBFD00"/>
        <rect x="99.79" y="36.88" width="9.22" height="9.22" fill="#FFFF00"/>
        <rect x="99.79" y="46.05" width="9.22" height="9.22" fill="#FFD300"/>
        <rect x="99.79" y="55.22" width="9.22" height="9.22" fill="#FFE100"/>
        <rect x="99.79" y="64.38" width="9.22" height="9.22" fill="#FFFF00"/>
        <rect x="99.79" y="73.55" width="9.22" height="9.22" fill="#E8F200"/>
        <rect x="99.79" y="82.72" width="9.22" height="9.22" fill="#97C200"/>
        <rect x="99.79" y="91.89" width="9.22" height="9.22" fill="#A0C800"/>
        <rect x="99.79" y="101.06" width="9.22" height="9.22" fill="#FFC500"/>
        <rect x="99.79" y="110.22" width="9.22" height="9.22" fill="#FDFE00"/>
        <rect x="99.79" y="119.39" width="9.22" height="9.22" fill="#FFDC00"/>
        <rect x="99.79" y="128.56" width="9.22" height="9.22" fill="#E8F200"/>
        <rect x="99.79" y="137.73" width="9.22" height="9.22" fill="#FBFC00"/>
        <rect x="99.79" y="146.89" width="9.22" height="9.22" fill="#F0F600"/>
        <rect x="99.79" y="156.06" width="9.22" height="9.22" fill="#FFD200"/>
        <rect x="99.79" y="165.23" width="9.22" height="9.22" fill="#FF9B00"/>
        <rect x="108.96" y="18.55" width="9.22" height="9.22" fill="#FFFF00"/>
        <rect x="108.96" y="27.71" width="9.22" height="9.22" fill="#FF1F00"/>
        <rect x="108.96" y="36.88" width="9.22" height="9.22" fill="#FFFF00"/>
        <rect x="108.96" y="46.05" width="9.22" height="9.22" fill="#F2F800"/>
        <rect x="108.96" y="55.22" width="9.22" height="9.22" fill="#FFE300"/>
        <rect x="108.96" y="64.38" width="9.22" height="9.22" fill="#FFFF00"/>
        <rect x="108.96" y="73.55" width="9.22" height="9.22" fill="#FFF900"/>
        <rect x="108.96" y="82.72" width="9.22" height="9.22" fill="#F7FA00"/>
        <rect x="108.96" y="91.89" width="9.22" height="9.22" fill="#FFF900"/>
        <rect x="108.96" y="101.06" width="9.22" height="9.22" fill="#FFF600"/>
        <rect x="108.96" y="110.22" width="9.22" height="9.22" fill="#FFFF00"/>
        <rect x="108.96" y="119.39" width="9.22" height="9.22" fill="#E8F200"/>
        <rect x="108.96" y="128.56" width="9.22" height="9.22" fill="#FFF900"/>
        <rect x="108.96" y="137.73" width="9.22" height="9.22" fill="#FFFD00"/>
        <rect x="108.96" y="146.89" width="9.22" height="9.22" fill="#FEFF00"/>
        <rect x="108.96" y="156.06" width="9.22" height="9.22" fill="#EEF500"/>
        <rect x="108.96" y="165.23" width="9.22" height="9.22" fill="#FFF300"/>
        <rect x="118.13" y="18.55" width="9.22" height="9.22" fill="#FFFF00"/>
        <rect x="118.13" y="27.71" width="9.22" height="9.22" fill="#FFD500"/>
        <rect x="118.13" y="36.88" width="9.22" height="9.22" fill="#FEFF00"/>
        <rect x="118.13" y="46.05" width="9.22" height="9.22" fill="#FFC900"/>
        <rect x="118.13" y="55.22" width="9.22" height="9.22" fill="#90BF00"/>
        <rect x="118.13" y="64.38" width="9.22" height="9.22" fill="#FEFE00"/>
        <rect x="118.13" y="73.55" width="9.22" height="9.22" fill="#DBEA00"/>
        <rect x="118.13" y="82.72" width="9.22" height="9.22" fill="#FFE800"/>
        <rect x="118.13" y="91.89" width="9.22" height="9.22" fill="#D4E600"/>
        <rect x="118.13" y="101.06" width="9.22" height="9.22" fill="#CDE200"/>
        <rect x="118.13" y="110.22" width="9.22" height="9.22" fill="#FDFE00"/>
        <rect x="118.13" y="119.39" width="9.22" height="9.22" fill="#FFA300"/>
        <rect x="118.13" y="128.56" width="9.22" height="9.22" fill="#DBEA00"/>
        <rect x="118.13" y="137.73" width="9.22" height="9.22" fill="#FBFC00"/>
        <rect x="118.13" y="146.89" width="9.22" height="9.22" fill="#FFFE00"/>
        <rect x="118.13" y="156.06" width="9.22" height="9.22" fill="#FFBC00"/>
        <rect x="118.13" y="165.23" width="9.22" height="9.22" fill="#BFDA00"/>
        <rect x="127.3" y="18.55" width="9.22" height="9.22" fill="#FFFF00"/>
        <rect x="127.3" y="27.71" width="9.22" height="9.22" fill="#FFFF00"/>
        <rect x="127.3" y="36.88" width="9.22" height="9.22" fill="#FFFF00"/>
        <rect x="127.3" y="46.05" width="9.22" height="9.22" fill="#FFEE00"/>
        <rect x="127.3" y="55.22" width="9.22" height="9.22" fill="#FFFE00"/>
        <rect x="127.3" y="64.38" width="9.22" height="9.22" fill="#FFFF00"/>
        <rect x="127.3" y="73.55" width="9.22" height="9.22" fill="#D5E600"/>
        <rect x="127.3" y="82.72" width="9.22" height="9.22" fill="#FFD700"/>
        <rect x="127.3" y="91.89" width="9.22" height="9.22" fill="#FFE800"/>
        <rect x="127.3" y="101.06" width="9.22" height="9.22" fill="#74AE00"/>
        <rect x="127.3" y="110.22" width="9.22" height="9.22" fill="#FFFF00"/>
        <rect x="127.3" y="119.39" width="9.22" height="9.22" fill="#EFF600"/>
        <rect x="127.3" y="128.56" width="9.22" height="9.22" fill="#D5E600"/>
        <rect x="127.3" y="137.73" width="9.22" height="9.22" fill="#FFFF00"/>
        <rect x="127.3" y="146.89" width="9.22" height="9.22" fill="#B2D200"/>
        <rect x="127.3" y="156.06" width="9.22" height="9.22" fill="#EDF400"/>
        <rect x="127.3" y="165.23" width="9.22" height="9.22" fill="#FF9300"/>
        <rect x="136.46" y="18.55" width="9.22" height="9.22" fill="#FFFF00"/>
        <rect x="136.46" y="27.71" width="9.22" height="9.22" fill="#FFFF00"/>
        <rect x="136.46" y="36.88" width="9.22" height="9.22" fill="#FFFF00"/>
        <rect x="136.46" y="46.05" width="9.22" height="9.22" fill="#92BF00"/>
        <rect x="136.46" y="55.22" width="9.22" height="9.22" fill="#FFFF00"/>
        <rect x="136.46" y="64.38" width="9.22" height="9.22" fill="#FFFF00"/>
        <rect x="136.46" y="73.55" width="9.22" height="9.22" fill="#99C400"/>
        <rect x="136.46" y="82.72" width="9.22" height="9.22" fill="#FFC500"/>
        <rect x="136.46" y="91.89" width="9.22" height="9.22" fill="#E3EF00"/>
        <rect x="136.46" y="101.06" width="9.22" height="9.22" fill="#FFBD00"/>
        <rect x="136.46" y="110.22" width="9.22" height="9.22" fill="#FFFC00"/>
        <rect x="136.46" y="119.39" width="9.22" height="9.22" fill="#E5F000"/>
        <rect x="136.46" y="128.56" width="9.22" height="9.22" fill="#9AC400"/>
        <rect x="136.46" y="137.73" width="9.22" height="9.22" fill="#FFFC00"/>
        <rect x="136.46" y="146.89" width="9.22" height="9.22" fill="#D1E400"/>
        <rect x="136.46" y="156.06" width="9.22" height="9.22" fill="#FFE100"/>
        <rect x="136.46" y="165.23" width="9.22" height="9.22" fill="#F5F900"/>
        <rect x="145.63" y="18.55" width="9.22" height="9.22" fill="#FFFF00"/>
        <rect x="145.63" y="27.71" width="9.22" height="9.22" fill="#FEFF00"/>
        <rect x="145.63" y="36.88" width="9.22" height="9.22" fill="#FFFF00"/>
        <rect x="145.63" y="46.05" width="9.22" height="9.22" fill="#FF9100"/>
        <rect x="145.63" y="55.22" width="9.22" height="9.22" fill="#FFFF00"/>
        <rect x="145.63" y="64.38" width="9.22" height="9.22" fill="#FFFF00"/>
        <rect x="145.63" y="73.55" width="9.22" height="9.22" fill="#D0E400"/>
        <rect x="145.63" y="82.72" width="9.22" height="9.22" fill="#FFE500"/>
        <rect x="145.63" y="91.89" width="9.22" height="9.22" fill="#F9FC00"/>
        <rect x="145.63" y="101.06" width="9.22" height="9.22" fill="#FFC700"/>
        <rect x="145.63" y="110.22" width="9.22" height="9.22" fill="#FFFD00"/>
        <rect x="145.63" y="119.39" width="9.22" height="9.22" fill="#FFFF00"/>
        <rect x="145.63" y="128.56" width="9.22" height="9.22" fill="#D1E400"/>
        <rect x="145.63" y="137.73" width="9.22" height="9.22" fill="#FCFE00"/>
        <rect x="145.63" y="146.89" width="9.22" height="9.22" fill="#D8E800"/>
        <rect x="145.63" y="156.06" width="9.22" height="9.22" fill="#72AD00"/>
        <rect x="145.63" y="165.23" width="9.22" height="9.22" fill="#DFEC00"/>
        <rect x="154.8" y="18.55" width="9.22" height="9.22" fill="#FFFF00"/>
        <rect x="154.8" y="27.71" width="9.22" height="9.22" fill="#FFFF00"/>
        <rect x="154.8" y="36.88" width="9.22" height="9.22" fill="#FFFF00"/>
        <rect x="154.8" y="46.05" width="9.22" height="9.22" fill="#EDF400"/>
        <rect x="154.8" y="55.22" width="9.22" height="9.22" fill="#FFFF00"/>
        <rect x="154.8" y="64.38" width="9.22" height="9.22" fill="#FFFF00"/>
        <rect x="154.8" y="73.55" width="9.22" height="9.22" fill="#FFD300"/>
        <rect x="154.8" y="82.72" width="9.22" height="9.22" fill="#FFAB00"/>
        <rect x="154.8" y="91.89" width="9.22" height="9.22" fill="#4F9A00"/>
        <rect x="154.8" y="101.06" width="9.22" height="9.22" fill="#EBF300"/>
        <rect x="154.8" y="110.22" width="9.22" height="9.22" fill="#FDFE00"/>
        <rect x="154.8" y="119.39" width="9.22" height="9.22" fill="#E9F200"/>
        <rect x="154.8" y="128.56" width="9.22" height="9.22" fill="#FFD300"/>
        <rect x="154.8" y="137.73" width="9.22" height="9.22" fill="#FFFE00"/>
        <rect x="154.8" y="146.89" width="9.22" height="9.22" fill="#FFF900"/>
        <rect x="154.8" y="156.06" width="9.22" height="9.22" fill="#DAE900"/>
        <rect x="154.8" y="165.23" width="9.22" height="9.22" fill="#FFF400"/>
        <rect x="163.97" y="18.55" width="9.22" height="9.22" fill="#FFFF00"/>
        <rect x="163.97" y="27.71" width="9.22" height="9.22" fill="#FFFF00"/>
        <rect x="163.97" y="36.88" width="9.22" height="9.22" fill="#FFFF00"/>
        <rect x="163.97" y="46.05" width="9.22" height="9.22" fill="#FFFA00"/>
        <rect x="163.97" y="55.22" width="9.22" height="9.22" fill="#FFFF00"/>
        <rect x="163.97" y="64.38" width="9.22" height="9.22" fill="#FFFF00"/>
        <rect x="163.97" y="73.55" width="9.22" height="9.22" fill="#C1DB00"/>
        <rect x="163.97" y="82.72" width="9.22" height="9.22" fill="#FFFD00"/>
        <rect x="163.97" y="91.89" width="9.22" height="9.22" fill="#F2F800"/>
        <rect x="163.97" y="101.06" width="9.22" height="9.22" fill="#DDEB00"/>
        <rect x="163.97" y="110.22" width="9.22" height="9.22" fill="#FFFC00"/>
        <rect x="163.97" y="119.39" width="9.22" height="9.22" fill="#E7F100"/>
        <rect x="163.97" y="128.56" width="9.22" height="9.22" fill="#C3DC00"/>
        <rect x="163.97" y="137.73" width="9.22" height="9.22" fill="#FFFF00"/>
        <rect x="163.97" y="146.89" width="9.22" height="9.22" fill="#FF4900"/>
        <rect x="163.97" y="156.06" width="9.22" height="9.22" fill="#E0ED00"/>
        <rect x="163.97" y="165.23" width="9.22" height="9.22" fill="#FFE300"/>
        <rect x="173.13" y="18.55" width="9.22" height="9.22" fill="#FFFF00"/>
        <rect x="173.13" y="27.71" width="9.22" height="9.22" fill="#FFFF00"/>
        <rect x="173.13" y="36.88" width="9.22" height="9.22" fill="#FFFF00"/>
        <rect x="173.13" y="46.05" width="9.22" height="9.22" fill="#FFFE00"/>
        <rect x="173.13" y="55.22" width="9.22" height="9.22" fill="#FFFF00"/>
        <rect x="173.13" y="64.38" width="9.22" height="9.22" fill="#FFFF00"/>
        <rect x="173.13" y="73.55" width="9.22" height="9.22" fill="#FFFE00"/>
        <rect x="173.13" y="82.72" width="9.22" height="9.22" fill="#FEFE00"/>
        <rect x="173.13" y="91.89" width="9.22" height="9.22" fill="#FDFE00"/>
        <rect x="173.13" y="101.06" width="9.22" height="9.22" fill="#FDFE00"/>
        <rect x="173.13" y="110.22" width="9.22" height="9.22" fill="#FF0100"/>
        <rect x="173.13" y="119.39" width="9.22" height="9.22" fill="#FFFD00"/>
        <rect x="173.13" y="128.56" width="9.22" height="9.22" fill="#FFFB00"/>
        <rect x="173.13" y="137.73" width="9.22" height="9.22" fill="#FFFF00"/>
        <rect x="173.13" y="146.89" width="9.22" height="9.22" fill="#FDFE00"/>
        <rect x="173.13" y="156.06" width="9.22" height="9.22" fill="#FFFD00"/>
        <rect x="173.13" y="165.23" width="9.22" height="9.22" fill="#FFFF00"/>
        <rect x="182.3" y="18.55" width="9.22" height="9.22" fill="#FFFF00"/>
        <rect x="182.3" y="27.71" width="9.22" height="9.22" fill="#FFFF00"/>
        <rect x="182.3" y="36.88" width="9.22" height="9.22" fill="#FFFF00"/>
        <rect x="182.3" y="46.05" width="9.22" height="9.22" fill="#FFFF00"/>
        <rect x="182.3" y="55.22" width="9.22" height="9.22" fill="#FFFF00"/>
        <rect x="182.3" y="64.38" width="9.22" height="9.22" fill="#FFFF00"/>
        <rect x="182.3" y="73.55" width="9.22" height="9.22" fill="#63A500"/>
        <rect x="182.3" y="82.72" width="9.22" height="9.22" fill="#FFFF00"/>
        <rect x="182.3" y="91.89" width="9.22" height="9.22" fill="#FFFF00"/>
        <rect x="182.3" y="101.06" width="9.22" height="9.22" fill="#FFFF00"/>
        <rect x="182.3" y="110.22" width="9.22" height="9.22" fill="#FCFD00"/>
        <rect x="182.3" y="119.39" width="9.22" height="9.22" fill="#FFFF00"/>
        <rect x="182.3" y="128.56" width="9.22" height="9.22" fill="#FF7500"/>
        <rect x="182.3" y="137.73" width="9.22" height="9.22" fill="#FFFF00"/>
        <rect x="182.3" y="146.89" width="9.22" height="9.22" fill="#FEFE00"/>
        <rect x="182.3" y="156.06" width="9.22" height="9.22" fill="#FFFF00"/>
        <rect x="182.3" y="165.23" width="9.22" height="9.22" fill="#FFFF00"/>
      </g>
    </g>
  </g>
</g>
  <g class="guide ylabels" font-size="4.23" font-family="'PT Sans Caption','Helvetica Neue','Helvetica',sans-serif" fill="#6C606B" id="img-c71dd1ed-16">
    <text x="34.62" y="23.13" text-anchor="end" dy="0.35em">logk1</text>
    <text x="34.62" y="32.3" text-anchor="end" dy="0.35em">logk2</text>
    <text x="34.62" y="41.46" text-anchor="end" dy="0.35em">logk3</text>
    <text x="34.62" y="50.63" text-anchor="end" dy="0.35em">logkbl</text>
    <text x="34.62" y="59.8" text-anchor="end" dy="0.35em">logkbs</text>
    <text x="34.62" y="68.97" text-anchor="end" dy="0.35em">logkab</text>
    <text x="34.62" y="78.14" text-anchor="end" dy="0.35em">rbl</text>
    <text x="34.62" y="87.3" text-anchor="end" dy="0.35em">rbs</text>
    <text x="34.62" y="96.47" text-anchor="end" dy="0.35em">rab</text>
    <text x="34.62" y="105.64" text-anchor="end" dy="0.35em">infil</text>
    <text x="34.62" y="114.81" text-anchor="end" dy="0.35em">mc_flux</text>
    <text x="34.62" y="123.98" text-anchor="end" dy="0.35em">sc_flux</text>
    <text x="34.62" y="133.14" text-anchor="end" dy="0.35em">lc_flux</text>
    <text x="34.62" y="142.31" text-anchor="end" dy="0.35em">west_flux</text>
    <text x="34.62" y="151.48" text-anchor="end" dy="0.35em">crbc</text>
    <text x="34.62" y="160.65" text-anchor="end" dy="0.35em">crst</text>
    <text x="34.62" y="169.81" text-anchor="end" dy="0.35em">cret</text>
  </g>
  <g font-size="4.94" font-family="'PT Sans','Helvetica Neue','Helvetica',sans-serif" fill="#564A55" stroke="#000000" stroke-opacity="0.000" id="img-c71dd1ed-17">
    <text x="9.3" y="94.47" text-anchor="middle" dy="0.35em" transform="rotate(-90, 9.3, 96.47)">Parameters</text>
  </g>
</g>
<defs>
  <clipPath id="img-c71dd1ed-9">
  <path d="M35.62,18.55 L 191.47 18.55 191.47 174.4 35.62 174.4" />
</clipPath>
</defs>
</svg>
